<?xml version="1.0" encoding="UTF-8" standalone="no"?>
<svg
   xmlns:osb="http://www.openswatchbook.org/uri/2009/osb"
   xmlns:dc="http://purl.org/dc/elements/1.1/"
   xmlns:cc="http://creativecommons.org/ns#"
   xmlns:rdf="http://www.w3.org/1999/02/22-rdf-syntax-ns#"
   xmlns:svg="http://www.w3.org/2000/svg"
   xmlns="http://www.w3.org/2000/svg"
   xmlns:xlink="http://www.w3.org/1999/xlink"
   id="svg3719"
   version="1.1"
   viewBox="0 0 158.75 158.75"
   height="600"
   width="600">
  <defs
     id="defs3713">
    <linearGradient
       osb:paint="solid"
       id="linearGradient4709">
      <stop
         id="stop4707"
         offset="0"
         style="stop-color:#ff0000;stop-opacity:1;" />
    </linearGradient>
    <linearGradient
       id="linearGradient4694">
      <stop
         style="stop-color:#ff0000;stop-opacity:1;"
         offset="0"
         id="stop4698" />
    </linearGradient>
    <linearGradient
       osb:paint="solid"
       id="linearGradient4694-3">
      <stop
         id="stop4692"
         offset="0"
         style="stop-color:#ff0000;stop-opacity:1;" />
    </linearGradient>
    <linearGradient
       gradientTransform="translate(-74.138525,-112.11972)"
       gradientUnits="userSpaceOnUse"
       y2="145.55298"
       x2="-87.449493"
       y1="145.55298"
       x1="-109.09294"
       id="linearGradient4696"
       xlink:href="#linearGradient4694" />
  </defs>
  <metadata
     id="metadata3716">
    <rdf:RDF>
      <cc:Work
         rdf:about="">
        <dc:format>image/svg+xml</dc:format>
        <dc:type
           rdf:resource="http://purl.org/dc/dcmitype/StillImage" />
        <dc:title></dc:title>
      </cc:Work>
    </rdf:RDF>
  </metadata>
  <g
     transform="translate(0,-138.24997)"
     id="layer1">
    <circle
       transform="rotate(-117.5)"
       r="12.605597"
       style="stroke-width:0.03609542"
       cy="-96.078217"
       cx="-231.15834"
       id="path3725" />
    <circle
       transform="rotate(-117.5)"
       r="12.605597"
       style="stroke-width:0.03609542"
       cy="35.169392"
       cx="-231.55293"
       id="path3725-3" />
    <circle
       transform="rotate(-27.5)"
       r="12.605597"
       style="stroke-width:0.03609542"
       cy="295.87766"
       cx="-29.521908"
       id="path3725-9" />
    <circle
       transform="rotate(-27.5)"
       r="12.605597"
       style="stroke-width:0.03609542"
       cy="164.63"
       cx="-29.1273"
       id="path3725-3-0" />
    <circle
       transform="rotate(-72.5)"
       r="10.821721"
       style="fill:#3a506b;fill-opacity:1;stroke-width:0.03098738"
       cy="76.638565"
       cx="-183.33963"
       id="path3725-3-0-5" />
    <circle
       transform="rotate(-72.5)"
       r="10.821721"
       style="fill:#3a506b;fill-opacity:1;stroke-width:0.03098738"
       cy="207.14365"
       cx="-183.97298"
       id="path3725-3-0-5-0" />
    <circle
       transform="rotate(107.5)"
       r="10.821721"
       style="fill:#3a506b;fill-opacity:1;stroke-width:0.03098738"
       cy="-141.88689"
       cx="248.96182"
       id="path3725-3-0-5-8" />
    <circle
       transform="rotate(-162.5)"
       r="10.821721"
       style="fill:#3a506b;fill-opacity:1;stroke-width:0.03098738"
       cy="-118.45673"
       cx="-142.52025"
       id="path3725-3-0-5-0-9" />
  </g>
</svg>
